Box Number,First Folder,Last Folder
1,After Midnight,Alice
2,Alien Nation,Amazon Women on the Moon
3,American Cyborg: Steel Warrior,And God created women
4,And You Thought Your Parents Were Weird,Apartment Zero
5,Apollo 13,Arabian Knight
6,Arachnophobia,Baby's Day Out
7,Babyfever,Bad Influence
8,Bad Lieutenant,The Basketball Diaries
9,Basket Case 3,Beethoven
10,Beethoven's 2nd,Best of the Best 2
11,Best of the International Tournee of Animation,The Big Blue
12,Big Business,Bingo
13,Bird,Blame It On The Bellboy
14,Blank Check,Blue Kite
15,Blue Planet,Book of Love
16,Boomerang,Boy's Life
17,Brady Bunch Movie,"Bright Lights, Big City"
18,Brighton Beach Memoirs,Bugsy
19,Bull Durham,Caddyshack II
20,CADENCE,CAPE FEAR
21,CAPTAIN RON,CASUATIES OF WAR
22,CB4,CHICAGO INTERNATIONAL FILM FESTIVAL 1991
23,CHICAGO INTERNATIONAL FILM FESTIVAL 1993,"Ciao, Professore!"
24,Cinderella ,"Clean, Shaven"
25,Clean Slate,Cobra
26,Cocoon,Coming to America
27,Commando ,Cool as Ice
28,Cool Runnings,The Cowboy Way
29,CQ,Cry-Baby
30,Cry Freedom,Da
31,Dad,The Dark Crystal 
32,Dark Eyes,Dead Heart
33,Deadly Currents,Defenseless
34,Def by Temptation,Dracula: Dead and Loving It
35,Dragnet,Drunken Master II
36,Drugstore Cowboy,Eddie Murphy Raw
37,Edward Scissorhands,Eminent Domain
38,Empire of the Sun,Ernest Rides Again
39,Ernest Saves Christmas,The Exorcist III
40,Exotica,Fanny
41,Fantasia,Father Of The Bride
42,Father Of The Bride II,A Few Good Men
43,The Field,Five Corners
44,The Five Heartbeats,The Fly
45,The Fly II,Four Weddings and a Funeral
46,1492: Conquest of Paradise,Fresh
47,Fresh Horses,Funny Farm
48,Funny Bones,Getting Even with Dad
49,Getting it Right,Gloria (1999)
50,Glory,Goodfellas
51,A Goofy Movie,Green on Thursday
52,Greencard,Grumpy Old Men
53,The Guardian,Hannah and Her Sisters
54,Hanoi Hilton,Havana 
55,"He Said, She Said",Heavyweights 
56,Helas Pour Moi,High Hopes
57,High Heels,Hollywood Shuffle
58,Home Alone ,Hot to Trot
59,Hot Shots,Howards End
60,How Are the Kids?,Imgaine: John Lennon
61,Immediate Family,The Indian Runner
62,Indian Summer,Inside
63,Inside Monkey Zetterland,I Went to the Dance
64,Jacob's Ladder,Jetsons: The Movie
65,Jefferson in Paris,Judge Dredd
66,Judgment Night,Kafka
67,Kansas,Kiss of the Dragon
68,Kiss of the Spider Woman ,La Maison Assassines
69,Lamerica,Last Tango in Paris
70,The Last Temptation of Christ,Legends of the Fall
71,The Lemon Sisters,License to Kill
72,Lie Down With Dogs,Lisa
73,Listen Up: The Lives of Quicy Jones,Little Vera
74,Little Women,Look Who's Talking Too
75,Looney Tunes Hall of Fame,The Lover
76,Loverboy,Made in Heaven
77,Madeline,The Man in the Moon
78,A Man in Uniform,Manon of the Spring
79,Margart's Museum,Matinee
80,Maurice,Mermaids
81,"Merry Christmas, Mr. Lawrence",The Mighty Quinn
82,The Milagro Beanfield Wars,Mixed Nuts
83,Mo' Better Blues,Moon over Parador 
84,Moonlight and Valentino,Mr. North
85,Mr. Payback,My Fair Lady
86,My Family,Mystery Date
87,Mystery Train,"National Lampoon's Christmas Vacation"
88,"National Lampoon's Loaded Weapon I",New York Underground Film Festival
89,Newsies,A Nightmare on Elm Street 3 Dream Warriors
90,A Nightmare on Elm Street 4 The Dream Master,North
91,North Shore,The Official Story
92,Off Limits,Operation Dumbo Drop
93,Opportunity Knocks,Over the Top
94,Pacific Heights,Passenger 57
95,Passion Fish,Pet Sematary
96,Pet Sematary Two,Platooon
